The Null Hypothesis - Day 11 of #50daysofkaggle
…
# A tibble: 1 × 3
  .metric .estimator .estimate
  <chr>   <chr>          <dbl>
1 rmse    standard       0.442

Testing accuracy

As mentioned in the TMRW documentation for binary classification metrics, we will try creating the confusion matrix and checking accuracy

Code

predicted_table

# A tibble: 179 × 2
   Survived dt_yhat
   <fct>    <fct>  
 1 1        1      
 2 1        1      
 3 1        0      
 4 1        0      
 5 0        1      
 6 0        0      
 7 0        1      
 8 0        0      
 9 1        1      
10 1        1      
# … with 169 more rows
…
